EESchema Schematic File Version 2
LIBS:power
LIBS:device
LIBS:transistors
LIBS:conn
LIBS:linear
LIBS:regul
LIBS:74xx
LIBS:cmos4000
LIBS:adc-dac
LIBS:memory
LIBS:xilinx
LIBS:microcontrollers
LIBS:dsp
LIBS:microchip
LIBS:analog_switches
LIBS:motorola
LIBS:texas
LIBS:intel
LIBS:audio
LIBS:interface
LIBS:digital-audio
LIBS:philips
LIBS:display
LIBS:cypress
LIBS:siliconi
LIBS:opto
LIBS:atmel
LIBS:contrib
LIBS:valves
LIBS:irgate-cache
EELAYER 25 0
EELAYER END
$Descr A4 11693 8268
encoding utf-8
Sheet 1 1
Title ""
Date ""
Rev ""
Comp ""
Comment1 ""
Comment2 ""
Comment3 ""
Comment4 ""
$EndDescr
$Comp
L DB25 J1
U 1 1 56FBE57E
P 1300 2500
F 0 "J1" H 1350 3850 50  0000 C CNN
F 1 "DB25" H 1250 1150 50  0000 C CNN
F 2 "Connect:DB25M_CI" H 1300 2500 50  0001 C CNN
F 3 "" H 1300 2500 50  0000 C CNN
	1    1300 2500
	-1   0    0    1   
$EndComp
$Comp
L R R2
U 1 1 56FBE6B2
P 2300 1700
F 0 "R2" V 2380 1700 50  0000 C CNN
F 1 "100" V 2300 1700 50  0000 C CNN
F 2 "Resistors_SMD:R_1206_HandSoldering" V 2230 1700 50  0001 C CNN
F 3 "" H 2300 1700 50  0000 C CNN
	1    2300 1700
	0    1    1    0   
$EndComp
$Comp
L R R3
U 1 1 56FBE831
P 2300 1900
F 0 "R3" V 2380 1900 50  0000 C CNN
F 1 "100" V 2300 1900 50  0000 C CNN
F 2 "Resistors_SMD:R_1206_HandSoldering" V 2230 1900 50  0001 C CNN
F 3 "" H 2300 1900 50  0000 C CNN
	1    2300 1900
	0    1    1    0   
$EndComp
$Comp
L R R4
U 1 1 56FBE87C
P 2300 2100
F 0 "R4" V 2380 2100 50  0000 C CNN
F 1 "100" V 2300 2100 50  0000 C CNN
F 2 "Resistors_SMD:R_1206_HandSoldering" V 2230 2100 50  0001 C CNN
F 3 "" H 2300 2100 50  0000 C CNN
	1    2300 2100
	0    1    1    0   
$EndComp
$Comp
L R R5
U 1 1 56FBE8CB
P 2300 2300
F 0 "R5" V 2380 2300 50  0000 C CNN
F 1 "100" V 2300 2300 50  0000 C CNN
F 2 "Resistors_SMD:R_1206_HandSoldering" V 2230 2300 50  0001 C CNN
F 3 "" H 2300 2300 50  0000 C CNN
	1    2300 2300
	0    1    1    0   
$EndComp
$Comp
L R R1
U 1 1 56FBE92D
P 2250 2800
F 0 "R1" V 2330 2800 50  0000 C CNN
F 1 "10k" V 2250 2800 50  0000 C CNN
F 2 "Resistors_SMD:R_1206_HandSoldering" V 2180 2800 50  0001 C CNN
F 3 "" H 2250 2800 50  0000 C CNN
	1    2250 2800
	0    1    1    0   
$EndComp
$Comp
L R R8
U 1 1 56FBE9CC
P 2600 3300
F 0 "R8" V 2680 3300 50  0000 C CNN
F 1 "47" V 2600 3300 50  0000 C CNN
F 2 "Resistors_SMD:R_1206_HandSoldering" V 2530 3300 50  0001 C CNN
F 3 "" H 2600 3300 50  0000 C CNN
	1    2600 3300
	0    1    1    0   
$EndComp
NoConn ~ 1750 1400
NoConn ~ 1750 1300
NoConn ~ 1750 1800
NoConn ~ 1750 2000
NoConn ~ 1750 2500
NoConn ~ 1750 3100
NoConn ~ 1750 3500
NoConn ~ 1750 3700
NoConn ~ 1750 2900
$Comp
L 74LS244 U1
U 1 1 56FBEC61
P 3950 2000
F 0 "U1" H 4000 1800 50  0000 C CNN
F 1 "74HC244" H 4050 1600 50  0000 C CNN
F 2 "Housings_DIP:DIP-20_W7.62mm_LongPads" H 3950 2000 50  0001 C CNN
F 3 "" H 3950 2000 50  0000 C CNN
	1    3950 2000
	1    0    0    -1  
$EndComp
$Comp
L R R6
U 1 1 56FBEEB0
P 2500 1050
F 0 "R6" V 2580 1050 50  0000 C CNN
F 1 "2k2" V 2500 1050 50  0000 C CNN
F 2 "Resistors_SMD:R_1206_HandSoldering" V 2430 1050 50  0001 C CNN
F 3 "" H 2500 1050 50  0000 C CNN
	1    2500 1050
	1    0    0    -1  
$EndComp
$Comp
L R R9
U 1 1 56FBEF2F
P 2700 1050
F 0 "R9" V 2780 1050 50  0000 C CNN
F 1 "2k2" V 2700 1050 50  0000 C CNN
F 2 "Resistors_SMD:R_1206_HandSoldering" V 2630 1050 50  0001 C CNN
F 3 "" H 2700 1050 50  0000 C CNN
	1    2700 1050
	1    0    0    -1  
$EndComp
$Comp
L R R10
U 1 1 56FBF0B4
P 2900 1050
F 0 "R10" V 2980 1050 50  0000 C CNN
F 1 "2k2" V 2900 1050 50  0000 C CNN
F 2 "Resistors_SMD:R_1206_HandSoldering" V 2830 1050 50  0001 C CNN
F 3 "" H 2900 1050 50  0000 C CNN
	1    2900 1050
	1    0    0    -1  
$EndComp
$Comp
L R R11
U 1 1 56FBF156
P 3100 1050
F 0 "R11" V 3180 1050 50  0000 C CNN
F 1 "2k2" V 3100 1050 50  0000 C CNN
F 2 "Resistors_SMD:R_1206_HandSoldering" V 3030 1050 50  0001 C CNN
F 3 "" H 3100 1050 50  0000 C CNN
	1    3100 1050
	1    0    0    -1  
$EndComp
$Comp
L C C2
U 1 1 56FBFF82
P 3900 1050
F 0 "C2" H 3925 1150 50  0000 L CNN
F 1 "100nF" H 3925 950 50  0000 L CNN
F 2 "Capacitors_SMD:C_1206_HandSoldering" H 3938 900 50  0001 C CNN
F 3 "" H 3900 1050 50  0000 C CNN
	1    3900 1050
	1    0    0    -1  
$EndComp
$Comp
L CP C3
U 1 1 56FBFFF3
P 4150 1050
F 0 "C3" H 4175 1150 50  0000 L CNN
F 1 "10uF" H 4175 950 50  0000 L CNN
F 2 "Capacitors_SMD:c_elec_5x5.7" H 4188 900 50  0001 C CNN
F 3 "" H 4150 1050 50  0000 C CNN
	1    4150 1050
	1    0    0    -1  
$EndComp
$Comp
L C C1
U 1 1 56FC015B
P 3650 1050
F 0 "C1" H 3675 1150 50  0000 L CNN
F 1 "10nF" H 3675 950 50  0000 L CNN
F 2 "Capacitors_SMD:C_1206_HandSoldering" H 3688 900 50  0001 C CNN
F 3 "" H 3650 1050 50  0000 C CNN
	1    3650 1050
	1    0    0    -1  
$EndComp
$Comp
L GND #PWR01
U 1 1 56FC03A3
P 3900 1250
F 0 "#PWR01" H 3900 1000 50  0001 C CNN
F 1 "GND" H 3900 1100 50  0000 C CNN
F 2 "" H 3900 1250 50  0000 C CNN
F 3 "" H 3900 1250 50  0000 C CNN
	1    3900 1250
	1    0    0    -1  
$EndComp
$Comp
L GND #PWR02
U 1 1 56FC086C
P 3250 2600
F 0 "#PWR02" H 3250 2350 50  0001 C CNN
F 1 "GND" H 3250 2450 50  0000 C CNN
F 2 "" H 3250 2600 50  0000 C CNN
F 3 "" H 3250 2600 50  0000 C CNN
	1    3250 2600
	1    0    0    -1  
$EndComp
$Comp
L BC237 Q1
U 1 1 56FC0E03
P 2650 2800
F 0 "Q1" H 2850 2875 50  0000 L CNN
F 1 "BC237" H 2850 2800 50  0000 L CNN
F 2 "TO_SOT_Packages_THT:TO-92_Inline_Wide" H 2650 3100 50  0000 L CIN
F 3 "" H 2650 2800 50  0000 L CNN
	1    2650 2800
	1    0    0    1   
$EndComp
$Comp
L R R7
U 1 1 56FC0E8C
P 2600 2500
F 0 "R7" V 2680 2500 50  0000 C CNN
F 1 "47k" V 2600 2500 50  0000 C CNN
F 2 "Resistors_SMD:R_1206_HandSoldering" V 2530 2500 50  0001 C CNN
F 3 "" H 2600 2500 50  0000 C CNN
	1    2600 2500
	0    1    1    0   
$EndComp
$Comp
L CONN_02X07 P1
U 1 1 56FC15C2
P 7250 1650
F 0 "P1" H 7250 2050 50  0000 C CNN
F 1 "CONN_02X07" V 7250 1650 50  0000 C CNN
F 2 "Pin_Headers:Pin_Header_Straight_2x07" H 7250 450 50  0001 C CNN
F 3 "" H 7250 450 50  0000 C CNN
	1    7250 1650
	1    0    0    -1  
$EndComp
$Comp
L R R12
U 1 1 56FC1611
P 5100 1350
F 0 "R12" V 5180 1350 50  0000 C CNN
F 1 "100" V 5100 1350 50  0000 C CNN
F 2 "Resistors_SMD:R_1206_HandSoldering" V 5030 1350 50  0001 C CNN
F 3 "" H 5100 1350 50  0000 C CNN
	1    5100 1350
	0    1    1    0   
$EndComp
$Comp
L R R13
U 1 1 56FC166C
P 5100 1550
F 0 "R13" V 5180 1550 50  0000 C CNN
F 1 "100" V 5100 1550 50  0000 C CNN
F 2 "Resistors_SMD:R_1206_HandSoldering" V 5030 1550 50  0001 C CNN
F 3 "" H 5100 1550 50  0000 C CNN
	1    5100 1550
	0    1    1    0   
$EndComp
$Comp
L R R14
U 1 1 56FC16D9
P 5100 1750
F 0 "R14" V 5180 1750 50  0000 C CNN
F 1 "100" V 5100 1750 50  0000 C CNN
F 2 "Resistors_SMD:R_1206_HandSoldering" V 5030 1750 50  0001 C CNN
F 3 "" H 5100 1750 50  0000 C CNN
	1    5100 1750
	0    1    1    0   
$EndComp
$Comp
L R R15
U 1 1 56FC172E
P 5100 1950
F 0 "R15" V 5180 1950 50  0000 C CNN
F 1 "100" V 5100 1950 50  0000 C CNN
F 2 "Resistors_SMD:R_1206_HandSoldering" V 5030 1950 50  0001 C CNN
F 3 "" H 5100 1950 50  0000 C CNN
	1    5100 1950
	0    1    1    0   
$EndComp
$Comp
L R R16
U 1 1 56FC1789
P 5100 2150
F 0 "R16" V 5180 2150 50  0000 C CNN
F 1 "100" V 5100 2150 50  0000 C CNN
F 2 "Resistors_SMD:R_1206_HandSoldering" V 5030 2150 50  0001 C CNN
F 3 "" H 5100 2150 50  0000 C CNN
	1    5100 2150
	0    1    1    0   
$EndComp
$Comp
L R R17
U 1 1 56FC17EC
P 5100 2350
F 0 "R17" V 5180 2350 50  0000 C CNN
F 1 "100" V 5100 2350 50  0000 C CNN
F 2 "Resistors_SMD:R_1206_HandSoldering" V 5030 2350 50  0001 C CNN
F 3 "" H 5100 2350 50  0000 C CNN
	1    5100 2350
	0    1    1    0   
$EndComp
Text Label 5300 1950 0    60   ~ 0
TMS
Text Label 5300 1750 0    60   ~ 0
TCK
Entry Wire Line
	6600 1250 6700 1350
Entry Wire Line
	6600 1350 6700 1450
Entry Wire Line
	6600 1450 6700 1550
Entry Wire Line
	6600 1550 6700 1650
Entry Wire Line
	6600 1650 6700 1750
Entry Wire Line
	6600 1750 6700 1850
Text Label 6700 1350 0    60   ~ 0
nTRST
Text Label 6700 1450 0    60   ~ 0
TDI
Text Label 6700 1550 0    60   ~ 0
TDO
Text Label 6700 1650 0    60   ~ 0
TMS
Text Label 6700 1750 0    60   ~ 0
TCK
Text Label 6700 1850 0    60   ~ 0
nSRST
Entry Wire Line
	5550 1350 5650 1250
Entry Wire Line
	5550 1550 5650 1450
Entry Wire Line
	5550 1750 5650 1650
Entry Wire Line
	5550 1950 5650 1850
Entry Wire Line
	5550 2150 5650 2050
Entry Wire Line
	5550 2350 5650 2250
Text Label 5300 1550 0    60   ~ 0
TDI
Text Label 5300 1350 0    60   ~ 0
nTRST
Text Label 5300 2150 0    60   ~ 0
TDO
Text Label 5300 2350 0    60   ~ 0
nSRST
NoConn ~ 4650 1900
NoConn ~ 4650 2000
NoConn ~ 4650 2100
$Comp
L C C4
U 1 1 56FC38BB
P 5900 1700
F 0 "C4" H 5925 1800 50  0000 L CNN
F 1 "100pF" H 5925 1600 50  0000 L CNN
F 2 "Capacitors_SMD:C_1206_HandSoldering" H 5938 1550 50  0001 C CNN
F 3 "" H 5900 1700 50  0000 C CNN
	1    5900 1700
	1    0    0    -1  
$EndComp
$Comp
L GND #PWR03
U 1 1 56FC3995
P 5900 2000
F 0 "#PWR03" H 5900 1750 50  0001 C CNN
F 1 "GND" H 5900 1850 50  0000 C CNN
F 2 "" H 5900 2000 50  0000 C CNN
F 3 "" H 5900 2000 50  0000 C CNN
	1    5900 2000
	1    0    0    -1  
$EndComp
NoConn ~ 7000 1950
NoConn ~ 7500 1850
$Comp
L GND #PWR04
U 1 1 56FC3D83
P 7650 1450
F 0 "#PWR04" H 7650 1200 50  0001 C CNN
F 1 "GND" H 7650 1300 50  0000 C CNN
F 2 "" H 7650 1450 50  0000 C CNN
F 3 "" H 7650 1450 50  0000 C CNN
	1    7650 1450
	1    0    0    -1  
$EndComp
$Comp
L R R18
U 1 1 56FC40B6
P 6300 1700
F 0 "R18" V 6380 1700 50  0000 C CNN
F 1 "1k" V 6300 1700 50  0000 C CNN
F 2 "Resistors_SMD:R_1206_HandSoldering" V 6230 1700 50  0001 C CNN
F 3 "" H 6300 1700 50  0000 C CNN
	1    6300 1700
	1    0    0    -1  
$EndComp
$Comp
L PWR_FLAG #FLG05
U 1 1 56FC4412
P 2500 700
F 0 "#FLG05" H 2500 795 50  0001 C CNN
F 1 "PWR_FLAG" H 2500 880 50  0000 C CNN
F 2 "" H 2500 700 50  0000 C CNN
F 3 "" H 2500 700 50  0000 C CNN
	1    2500 700 
	1    0    0    -1  
$EndComp
$Comp
L PWR_FLAG #FLG06
U 1 1 56FC45B7
P 2100 700
F 0 "#FLG06" H 2100 795 50  0001 C CNN
F 1 "PWR_FLAG" H 2100 880 50  0000 C CNN
F 2 "" H 2100 700 50  0000 C CNN
F 3 "" H 2100 700 50  0000 C CNN
	1    2100 700 
	1    0    0    -1  
$EndComp
$Comp
L GND #PWR07
U 1 1 56FC4657
P 2100 850
F 0 "#PWR07" H 2100 600 50  0001 C CNN
F 1 "GND" H 2100 700 50  0000 C CNN
F 2 "" H 2100 850 50  0000 C CNN
F 3 "" H 2100 850 50  0000 C CNN
	1    2100 850 
	1    0    0    -1  
$EndComp
Wire Wire Line
	2450 3300 1750 3300
Wire Wire Line
	1750 1600 1950 1600
Wire Wire Line
	1950 1600 1950 2700
Wire Wire Line
	1950 2700 1750 2700
Wire Wire Line
	1750 2200 1850 2200
Wire Wire Line
	1850 2200 1850 3850
Wire Wire Line
	1850 3600 1750 3600
Wire Wire Line
	1750 2400 1850 2400
Connection ~ 1850 2400
Wire Wire Line
	1750 2600 1850 2600
Connection ~ 1850 2600
Wire Wire Line
	1750 2800 1850 2800
Connection ~ 1850 2800
Wire Wire Line
	1750 3000 1850 3000
Connection ~ 1850 3000
Wire Wire Line
	1750 3200 1850 3200
Connection ~ 1850 3200
Wire Wire Line
	1750 3400 1850 3400
Connection ~ 1850 3400
Wire Wire Line
	4650 3300 4650 2200
Wire Wire Line
	1750 1700 2150 1700
Wire Wire Line
	1750 1900 2150 1900
Wire Wire Line
	1750 2100 2150 2100
Wire Wire Line
	1750 2300 2150 2300
Wire Wire Line
	3100 2300 2450 2300
Wire Wire Line
	2500 1200 2500 1800
Wire Wire Line
	2500 1700 2450 1700
Wire Wire Line
	2700 1900 2450 1900
Wire Wire Line
	2900 1200 2900 2100
Wire Wire Line
	2900 2100 2450 2100
Wire Wire Line
	3100 1200 3100 2300
Wire Wire Line
	2500 700  2500 900 
Wire Wire Line
	2500 800  7800 800 
Wire Wire Line
	3100 800  3100 900 
Wire Wire Line
	2700 900  2700 800 
Connection ~ 2700 800 
Wire Wire Line
	2900 900  2900 800 
Connection ~ 2900 800 
Wire Wire Line
	4150 800  4150 900 
Connection ~ 3100 800 
Wire Wire Line
	3900 900  3900 800 
Connection ~ 3900 800 
Wire Wire Line
	3650 900  3650 800 
Connection ~ 3650 800 
Wire Wire Line
	3650 1200 4150 1200
Connection ~ 3900 1200
Wire Wire Line
	3900 1200 3900 1250
Wire Wire Line
	3250 2400 3250 2600
Connection ~ 3250 2500
Wire Wire Line
	2050 1500 1750 1500
Wire Wire Line
	3250 2500 2750 2500
Wire Wire Line
	2750 2500 2750 2600
Wire Wire Line
	2450 2500 2450 2800
Wire Wire Line
	2450 2800 2400 2800
Wire Wire Line
	2100 2800 2050 2800
Wire Wire Line
	2050 2800 2050 1500
Wire Wire Line
	4650 1500 4650 1350
Wire Wire Line
	4650 1350 4950 1350
Wire Wire Line
	4650 1600 4950 1600
Wire Wire Line
	4950 1600 4950 1550
Wire Wire Line
	4650 1700 4950 1700
Wire Wire Line
	4950 1700 4950 1750
Wire Wire Line
	4650 1800 4950 1800
Wire Wire Line
	4950 1800 4950 1950
Wire Wire Line
	7000 1350 6700 1350
Wire Wire Line
	7000 1450 6700 1450
Wire Wire Line
	7000 1550 6700 1550
Wire Wire Line
	7000 1650 6700 1650
Wire Wire Line
	7000 1750 6700 1750
Wire Wire Line
	7000 1850 6700 1850
Wire Wire Line
	5250 1350 5550 1350
Wire Wire Line
	5250 1750 5750 1750
Wire Wire Line
	5250 1950 5550 1950
Wire Wire Line
	5250 2150 5550 2150
Wire Wire Line
	5250 2350 6300 2350
Wire Wire Line
	3250 2200 3250 2300
Wire Wire Line
	3250 2300 4800 2300
Wire Wire Line
	4800 2300 4800 2150
Wire Wire Line
	4800 2150 4950 2150
Wire Wire Line
	2750 3000 4950 3000
Wire Wire Line
	4950 3000 4950 2350
Wire Wire Line
	3250 1900 3250 2100
Connection ~ 3250 2000
Wire Wire Line
	3250 2000 3150 2000
Wire Wire Line
	3150 2000 3150 2500
Connection ~ 3150 2500
Wire Wire Line
	5900 1850 5900 2000
Wire Wire Line
	7500 1350 7500 1750
Connection ~ 7500 1450
Connection ~ 7500 1550
Connection ~ 7500 1650
Wire Wire Line
	7650 1450 7500 1450
Wire Bus Line
	6600 1150 5650 1150
Wire Bus Line
	5650 1150 5650 2250
Connection ~ 4150 800 
Wire Wire Line
	6300 2350 6300 1850
Wire Wire Line
	6300 1550 6300 800 
Connection ~ 6300 800 
Connection ~ 2500 800 
Wire Wire Line
	2100 700  2100 850 
Wire Wire Line
	3650 1450 3650 1300
Wire Wire Line
	3650 1300 3450 1300
Wire Wire Line
	3450 1300 3450 800 
Connection ~ 3450 800 
Wire Wire Line
	3650 2550 3650 2600
Wire Wire Line
	3650 2600 3250 2600
Wire Wire Line
	2500 1800 3250 1800
Connection ~ 2500 1700
Wire Wire Line
	3250 1500 3100 1500
Connection ~ 3100 1500
Wire Wire Line
	2700 1200 2700 1900
Wire Wire Line
	3250 1600 2900 1600
Connection ~ 2900 1600
Wire Wire Line
	3250 1700 2700 1700
Connection ~ 2700 1700
Wire Wire Line
	5250 1550 5550 1550
Wire Wire Line
	5750 1750 5750 1550
Wire Wire Line
	5750 1550 5900 1550
Wire Bus Line
	6600 1750 6600 1150
Wire Wire Line
	7500 1950 7800 1950
Wire Wire Line
	7800 1950 7800 800 
$Comp
L R R19
U 1 1 56FC9FA9
P 3050 3300
F 0 "R19" V 3130 3300 50  0000 C CNN
F 1 "47" V 3050 3300 50  0000 C CNN
F 2 "Resistors_SMD:R_1206_HandSoldering" V 2980 3300 50  0001 C CNN
F 3 "" H 3050 3300 50  0000 C CNN
	1    3050 3300
	0    1    1    0   
$EndComp
Wire Wire Line
	2750 3300 2900 3300
Wire Wire Line
	3200 3300 4650 3300
$Comp
L GND #PWR08
U 1 1 56FCA3FB
P 1850 3850
F 0 "#PWR08" H 1850 3600 50  0001 C CNN
F 1 "GND" H 1850 3700 50  0000 C CNN
F 2 "" H 1850 3850 50  0000 C CNN
F 3 "" H 1850 3850 50  0000 C CNN
	1    1850 3850
	1    0    0    -1  
$EndComp
Connection ~ 1850 3600
$EndSCHEMATC
